graph {
	node_0_0 -- node_1_0
	node_0_0 -- node_0_1
	node_0_1 -- node_1_1
	node_0_1 -- node_0_2
	node_0_2 -- node_1_2
	node_0_2 -- node_0_3
	node_0_3 -- node_1_3
	node_0_3 -- node_0_4
	node_0_4 -- node_1_4
	node_0_4 -- node_0_5
	node_0_5 -- node_1_5
	node_0_5 -- node_0_6
	node_0_6 -- node_1_6
	node_0_6 -- node_0_7
	node_0_7 -- node_1_7
	node_0_7 -- node_0_8
	node_0_8 -- node_1_8
	node_0_8 -- node_0_9
	node_1_0 -- node_2_0
	node_1_0 -- node_1_1
	node_1_1 -- node_2_1
	node_1_1 -- node_1_2
	node_1_2 -- node_2_2
	node_1_2 -- node_1_3
	node_1_3 -- node_2_3
	node_1_3 -- node_1_4
	node_1_4 -- node_2_4
	node_1_4 -- node_1_5
	node_1_5 -- node_2_5
	node_1_5 -- node_1_6
	node_1_6 -- node_2_6
	node_1_6 -- node_1_7
	node_1_7 -- node_2_7
	node_1_7 -- node_1_8
	node_1_8 -- node_2_8
	node_1_8 -- node_1_9
	node_2_0 -- node_3_0
	node_2_0 -- node_2_1
	node_2_1 -- node_3_1
	node_2_1 -- node_2_2
	node_2_2 -- node_3_2
	node_2_2 -- node_2_3
	node_2_3 -- node_3_3
	node_2_3 -- node_2_4
	node_2_4 -- node_3_4
	node_2_4 -- node_2_5
	node_2_5 -- node_3_5
	node_2_5 -- node_2_6
	node_2_6 -- node_3_6
	node_2_6 -- node_2_7
	node_2_7 -- node_3_7
	node_2_7 -- node_2_8
	node_2_8 -- node_3_8
	node_2_8 -- node_2_9
	node_3_0 -- node_4_0
	node_3_0 -- node_3_1
	node_3_1 -- node_4_1
	node_3_1 -- node_3_2
	node_3_2 -- node_4_2
	node_3_2 -- node_3_3
	node_3_3 -- node_4_3
	node_3_3 -- node_3_4
	node_3_4 -- node_4_4
	node_3_4 -- node_3_5
	node_3_5 -- node_4_5
	node_3_5 -- node_3_6
	node_3_6 -- node_4_6
	node_3_6 -- node_3_7
	node_3_7 -- node_4_7
	node_3_7 -- node_3_8
	node_3_8 -- node_4_8
	node_3_8 -- node_3_9
	node_4_0 -- node_5_0
	node_4_0 -- node_4_1
	node_4_1 -- node_5_1
	node_4_1 -- node_4_2
	node_4_2 -- node_5_2
	node_4_2 -- node_4_3
	node_4_3 -- node_5_3
	node_4_3 -- node_4_4
	node_4_4 -- node_5_4
	node_4_4 -- node_4_5
	node_4_5 -- node_5_5
	node_4_5 -- node_4_6
	node_4_6 -- node_5_6
	node_4_6 -- node_4_7
	node_4_7 -- node_5_7
	node_4_7 -- node_4_8
	node_4_8 -- node_5_8
	node_4_8 -- node_4_9
	node_5_0 -- node_6_0
	node_5_0 -- node_5_1
	node_5_1 -- node_6_1
	node_5_1 -- node_5_2
	node_5_2 -- node_6_2
	node_5_2 -- node_5_3
	node_5_3 -- node_6_3
	node_5_3 -- node_5_4
	node_5_4 -- node_6_4
	node_5_4 -- node_5_5
	node_5_5 -- node_6_5
	node_5_5 -- node_5_6
	node_5_6 -- node_6_6
	node_5_6 -- node_5_7
	node_5_7 -- node_6_7
	node_5_7 -- node_5_8
	node_5_8 -- node_6_8
	node_5_8 -- node_5_9
	node_6_0 -- node_7_0
	node_6_0 -- node_6_1
	node_6_1 -- node_7_1
	node_6_1 -- node_6_2
	node_6_2 -- node_7_2
	node_6_2 -- node_6_3
	node_6_3 -- node_7_3
	node_6_3 -- node_6_4
	node_6_4 -- node_7_4
	node_6_4 -- node_6_5
	node_6_5 -- node_7_5
	node_6_5 -- node_6_6
	node_6_6 -- node_7_6
	node_6_6 -- node_6_7
	node_6_7 -- node_7_7
	node_6_7 -- node_6_8
	node_6_8 -- node_7_8
	node_6_8 -- node_6_9
	node_7_0 -- node_8_0
	node_7_0 -- node_7_1
	node_7_1 -- node_8_1
	node_7_1 -- node_7_2
	node_7_2 -- node_8_2
	node_7_2 -- node_7_3
	node_7_3 -- node_8_3
	node_7_3 -- node_7_4
	node_7_4 -- node_8_4
	node_7_4 -- node_7_5
	node_7_5 -- node_8_5
	node_7_5 -- node_7_6
	node_7_6 -- node_8_6
	node_7_6 -- node_7_7
	node_7_7 -- node_8_7
	node_7_7 -- node_7_8
	node_7_8 -- node_8_8
	node_7_8 -- node_7_9
	node_8_0 -- node_9_0
	node_8_0 -- node_8_1
	node_8_1 -- node_9_1
	node_8_1 -- node_8_2
	node_8_2 -- node_9_2
	node_8_2 -- node_8_3
	node_8_3 -- node_9_3
	node_8_3 -- node_8_4
	node_8_4 -- node_9_4
	node_8_4 -- node_8_5
	node_8_5 -- node_9_5
	node_8_5 -- node_8_6
	node_8_6 -- node_9_6
	node_8_6 -- node_8_7
	node_8_7 -- node_9_7
	node_8_7 -- node_8_8
	node_8_8 -- node_9_8
	node_8_8 -- node_8_9
}
