graph {
	node_0 -- node_1
	node_1 -- node_2
	node_2 -- node_0
	node_3 -- node_1
	node_3 -- node_2
	node_4 -- node_2
	node_4 -- node_0
	node_5 -- node_3
	node_5 -- node_1
	node_6 -- node_2
	node_6 -- node_0
	node_7 -- node_6
	node_7 -- node_0
	node_8 -- node_5
	node_8 -- node_1
	node_9 -- node_6
	node_9 -- node_0
	node_10 -- node_5
	node_10 -- node_1
	node_11 -- node_7
	node_11 -- node_0
	node_12 -- node_1
	node_12 -- node_2
	node_13 -- node_9
	node_13 -- node_6
	node_14 -- node_5
	node_14 -- node_3
	node_15 -- node_7
	node_15 -- node_6
	node_16 -- node_5
	node_16 -- node_1
	node_17 -- node_5
	node_17 -- node_3
	node_18 -- node_7
	node_18 -- node_0
	node_19 -- node_7
	node_19 -- node_6
	node_20 -- node_18
	node_20 -- node_0
	node_21 -- node_10
	node_21 -- node_1
	node_22 -- node_17
	node_22 -- node_3
	node_23 -- node_10
	node_23 -- node_5
	node_24 -- node_7
	node_24 -- node_0
	node_25 -- node_12
	node_25 -- node_1
	node_26 -- node_16
	node_26 -- node_5
	node_27 -- node_23
	node_27 -- node_5
	node_28 -- node_14
	node_28 -- node_3
	node_29 -- node_22
	node_29 -- node_3
}
